module gitlab.com/le9ru/erp_proto

go 1.20

require (
	github.com/grpc-ecosystem/grpc-gateway/v2 v2.19.1
	google.golang.org/grpc v1.62.1
	google.golang.org/grpc/cmd/protoc-gen-go-grpc v1.3.0
	google.golang.org/protobuf v1.33.0
)

require (
	github.com/golang/protobuf v1.5.3 // indirect
	github.com/kr/text v0.2.0 // indirect
	github.com/rogpeppe/go-internal v1.12.0 // indirect
	golang.org/x/net v0.20.0 // indirect
	golang.org/x/sys v0.16.0 // indirect
	golang.org/x/text v0.14.0 // indirect
	google.golang.org/genproto v0.0.0-20240123012728-ef4313101c80 // indirect
	google.golang.org/genproto/googleapis/api v0.0.0-20240125205218-1f4bbc51befe // indirect
	google.golang.org/genproto/googleapis/rpc v0.0.0-20240125205218-1f4bbc51befe // indirect
	gopkg.in/yaml.v3 v3.0.1 // indirect
)
